-- Model Bone Information --
-Name: polySurface8
 Index: 0

-- Model Mesh Information --
ID: 0
Name: polySurface8
PBone: polySurface8 (0)


-- Model Bounding Box --
X: 124.7113
Y: 56.2724
Z: 123.8018

-- Model Bounding Sphere (Cover all meshes of model)--
Radius: 32.78856

-- Model Bounding Sphere (Cover the bounding box)--
Radius: 92.25829

-- Model Misc Statistics --
Vertices: 4339
Triangles: 2928
